Lab 13
…
For my lab, I mainly focused on community/ environmental correlations and community composition & diversity. With the help of Co-pilot, I made some really interesting plots! ## Cross-site environmental ranges

site_summary <- soil_env %>%
  group_by(site_ID) %>%
  summarize(n = n(),
            elev_mean = mean(elevation, na.rm = TRUE),
            temp_mean = mean(soilTemp, na.rm = TRUE),
            moist_mean = mean(soilMoisture, na.rm = TRUE),
            phw_mean = mean(soilInWaterpH, na.rm = TRUE),
            phc_mean = mean(soilInCaClpH, na.rm = TRUE)) %>%
  arrange(desc(elev_mean))

site_summary

# A tibble: 28 × 7
   site_ID     n elev_mean temp_mean moist_mean phw_mean phc_mean
   <chr>   <int>     <dbl>     <dbl>      <dbl>    <dbl>    <dbl>
 1 NIWO      351     3333.     13.9      0.303      4.96     4.21
 2 YELL      103     2072.     12.5      0.0945     6.40     5.67
 3 ONAQ      174     1710.     19.3      0.0849     8.06     7.44
 4 CPER      122     1645.     24.8      0.0736     6.90     6.26
 5 PUUM      506     1598.     10.2      3.10       4.75     3.93
 6 MLBS      179     1110.     15.6      0.956      3.99     3.43
 7 SRER      116     1030.     30.2      0.0424     6.84     6.12
 8 TOOL      102      831.      4.14     6.40       4.28     3.69
 9 WOOD      170      587.     18.3      0.280      7.21     6.61
10 DCFS      258      561.     19.2      0.316      6.52     5.86
# ℹ 18 more rows
…
type_diff <- soil_env %>%
  filter(sample_type %in% c("M","O")) %>%
  group_by(site_ID, sample_type) %>%
  summarize(across(c(soilTemp, soilMoisture, soilInWaterpH, soilInCaClpH),
                   ~mean(.x, na.rm = TRUE)), .groups = "drop") %>%
  pivot_wider(names_from = sample_type, values_from = c(soilTemp, soilMoisture, soilInWaterpH, soilInCaClpH)) %>%
  mutate(d_temp = soilTemp_O - soilTemp_M,
         d_moist = soilMoisture_O - soilMoisture_M,
         d_phw = soilInWaterpH_O - soilInWaterpH_M,
         d_phc = soilInCaClpH_O - soilInCaClpH_M)

type_diff

# A tibble: 28 × 13
   site_ID soilTemp_O soilTemp_M soilMoisture_O soilMoisture_M soilInWaterpH_O
   <chr>        <dbl>      <dbl>          <dbl>          <dbl>           <dbl>
 1 BONA          8.20      NA             2.30         NA                 4.07
 2 CLBJ         NA         22.1          NA             0.138            NA   
 3 CPER         NA         24.8          NA             0.0736           NA   
 4 DCFS         18.9       19.3           0.514         0.283             6.25
 5 DEJU          6.68       6.80          0.661         0.367             4.55
 6 DSNY         NA         25.6          NA             0.227            NA   
 7 GUAN         NA         28.4          NA             0.481            NA   
 8 HARV         16.7       NA             2.66         NA                 3.75
 9 KONZ         NA         25.0          NA             0.195            NA   
10 LENO         NA         25.1          NA             0.396            NA   
# ℹ 18 more rows
# ℹ 7 more variables: soilInWaterpH_M <dbl>, soilInCaClpH_O <dbl>,
#   soilInCaClpH_M <dbl>, d_temp <dbl>, d_moist <dbl>, d_phw <dbl>, d_phc <dbl>
…
Identify chemical outliers and extremes

outliers <- soil_env %>%
  mutate(ph_diff = soilInWaterpH - soilInCaClpH) %>%
  mutate(is_extreme = ph_diff > quantile(ph_diff, 0.95, na.rm = TRUE) |
                       ph_diff < quantile(ph_diff, 0.05, na.rm = TRUE) |
                       soilInWaterpH < quantile(soilInWaterpH, 0.05, na.rm = TRUE) |
                       soilInWaterpH > quantile(soilInWaterpH, 0.95, na.rm = TRUE))

outliers %>%
  filter(is_extreme) %>%
  arrange(desc(ph_diff)) %>%
  select(genomicsSampleID, site_ID, soilInWaterpH, soilInCaClpH, ph_diff, soilTemp, soilMoisture, elevation)

# A tibble: 1,065 × 8
   genomicsSampleID    site_ID soilInWaterpH soilInCaClpH ph_diff soilTemp
   <chr>               <chr>           <dbl>        <dbl>   <dbl>    <dbl>
 1 DSNY_043-M-20230912 DSNY             5.20         3.73    1.47    24.5 
 2 DSNY_043-M-20230912 DSNY             5.20         3.73    1.47    24.5 
 3 DSNY_043-M-20230912 DSNY             5.20         3.73    1.47    24.5 
 4 DSNY_043-M-20230912 DSNY             5.20         3.73    1.47    24.5 
 5 DSNY_043-M-20230912 DSNY             5.20         3.73    1.47    24.5 
 6 DSNY_043-M-20230912 DSNY             5.20         3.73    1.47    24.5 
 7 DSNY_043-M-20230912 DSNY             5.20         3.73    1.47    24.5 
 8 SJER_047-M-20230228 SJER             6.36         5.01    1.35     8.43
 9 SJER_047-M-20230228 SJER             6.36         5.01    1.35     8.43
10 SJER_047-M-20230228 SJER             6.36         5.01    1.35     8.43
# ℹ 1,055 more rows
# ℹ 2 more variables: soilMoisture <dbl>, elevation <dbl>
…
